{
    "type": "service_account",
    "project_id": "piikup-app",
    "private_key_id": "00f35bbb607bd8e31d009e5651ff8ff7bb24f2e1",
    "private_key": "-----BEGIN PRIVATE KEY-----\nMIIEvAIBADANBgkqhkiG9w0BAQEFAASCBKYwggSiAgEAAoIBAQCosQd2Ibs21lY+\nOiWBqLNMmeEYo6xv+YltrPjX6fI2UlODsD3cZBd7MQm3gR+GSASSHDeEmglHMT0H\nR0q0FdoWts2tld3HZ/kHcdeov9iJtedth8+sORiBIVWtjxjiQv9JwqyAxzC+/Fcg\nGRtjZZxokb+zSqR5CYM2BFJm+2iYAXGGwwRxsGJNuMHb0LRDSRfuyC4kSkJGEK3D\nAeBPCjPvJVrheOkqreD01oDFMfQwYhLeF1GFZLnrlj87zQv9z0YLqG9zhbjhcvlY\nxe4xkFh+A/qg0S3AvCkM9cY4PaEYf2GxFf/1/CpE7CTOeM2dbezXRww1ma6BtP15\nC3YmzKfPAgMBAAECggEADf6Nr2j8oSp713K3HNVey9qHgtCajrmFWKISYhsdhbsj\nrteRR4t4KoyhZpChibVyHPWWoiYDN12S11vnNcm1oM/D1VmK9K7Knn79FJnsaqmQ\nDD/0ObCM412IFZC6+ujy88QLeoLL0kmYfWhdI3b7rZh1w6J2wuHH+am3H6WjV4TC\n/tbCIEk9RaqCxH5QD1+7jeyD1SQYab/6oK+Qgd8HHKwJBbGXViPZqqZFuyDIYVYS\n5xTUH79AFCAre/hcmY2Ng8e2YeM+yNaBiBwii+MRIJcCItSMt8oCRqDY6NhnCaNW\nTThu3tmdVadVSR25H8hfxe8ZIVDuU+xaWmustLwIaQKBgQDujbBGfc1NJhR2nyqF\nnuHt4j5rCbDk6b5bnJbni818MNpXZuDbHhg0SdBw9vy38ZSnQejshHiCl0avmSa6\nHvhpu0dIDz2RWtV8aB65eKrikGGapAPOlmtoG7b5iw3K1t9cmxdIzkxzHmJ1DTnl\nGeP6ZFJYGcr7tfqEMXhIAtT1SQKBgQC1B1oYUSHIdrOxuEs3iF92D/TbBDB+Rfn0\nInghjtwlCWmELaZUFDw4QVVqX2nUjEj0nalRtduEPiEa9vsETMdJnel3/aS/zH5A\nogDh1XDh37jE/r1eNSZ5m60M1o+bpdSaMoyxHVoGhnnaTLb5hP+k8kBwUPsH+07y\neXon4d7sVwKBgF7LyT/J4BqHRlx5FZGxuIAqhrlMSZI93JpVGJZ8tLRkSW+v/yyz\nwdSNfJpXW8fQ5Uyt4VyTq7vhV4KSLpSJmBeUB1h4TfQED4/3ZDY54FZWH6MvCCBB\nH/9n/AcgHeP8DRikvNT+vdyFN4TiM5558mFfGmXOIh5yi1GawvyCu5OZAoGAGZ9c\nxSxWl8UVUgY/vzByMoe3pHhHVNgatM9cKYPK7QMUCD1d2XCzxVKaAGBY3lisytK1\n8HbJB0Kz9NkYVld3rZfIP8+Kzgrno8ZKUaygOZgs0tUrgHYNaBD8wWBtGx6xpNGa\n0EbTQzEtdhR9oXuNo48WR89ueIa9edxvyc1SfCkCgYA4KSItrKDGrTiUXEsfkt+W\nLQpK5Kc7X0xoBjm4ngxoFmHSTiEEfdUELixBI6R99Sr6swsJNozdtrnCPwSr/GIu\nYv9Bmuk4f3Rw14HI6jic4vVvAPikHU4BwNgXDPxsvg/nLnimqy+Q8/K19mA3ovca\n7qXXDA1cpRwg54MO7yB2MQ==\n-----END PRIVATE KEY-----\n",
    "client_email": "firebase-adminsdk-30g78@piikup-app.iam.gserviceaccount.com",
    "client_id": "110191089051972714093",
    "auth_uri": "https://accounts.google.com/o/oauth2/auth",
    "token_uri": "https://oauth2.googleapis.com/token",
    "auth_provider_x509_cert_url": "https://www.googleapis.com/oauth2/v1/certs",
    "client_x509_cert_url": "https://www.googleapis.com/robot/v1/metadata/x509/firebase-adminsdk-30g78%40piikup-app.iam.gserviceaccount.com",
    "universe_domain": "googleapis.com"
  }
  