<svg width="18" height="20" viewBox="0 0 18 20" fill="none" xmlns="http://www.w3.org/2000/svg">
<path d="M8.99905 0C4.47758 0 0.8125 3.66508 0.8125 8.18655C0.8125 12.708 8.99905 20 8.99905 20C8.99905 20 17.1856 12.708 17.1856 8.18655C17.1856 3.66508 13.5205 0 8.99905 0ZM8.99905 11.8929C6.8247 11.8929 5.06115 10.1295 5.06115 7.955C5.06115 5.78048 6.8247 4.0171 8.99905 4.0171C11.1736 4.0171 12.937 5.78048 12.937 7.955C12.937 10.1295 11.1736 11.8929 8.99905 11.8929Z" fill="white"/>
</svg>
